%YAML 1.1
%TAG !u! tag:unity3d.com,2011:
--- !u!114 &11400000
MonoBehaviour:
  m_ObjectHideFlags: 0
  m_CorrespondingSourceObject: {fileID: 0}
  m_PrefabInstance: {fileID: 0}
  m_PrefabAsset: {fileID: 0}
  m_GameObject: {fileID: 0}
  m_Enabled: 1
  m_EditorHideFlags: 0
  m_Script: {fileID: 11500000, guid: 6e0f41d5a27daad49a0d93010e96dbfa, type: 3}
  m_Name: Wave_Boss_Minions_Straight_2
  m_EditorClassIdentifier: 
  EnemyPrefab: {fileID: 1059142292398496, guid: 0bb7c9957cd7d6e43ba9be337bb72b8e,
    type: 3}
  PathPrefab: {fileID: 1106137139534900, guid: 85dd98d9ea7a1b8429f019aee9544e82, type: 3}
  TimeBetweenWaves: 0
  SpawnRandomFactor: 0
  NumberOfEnemies: 1
  MoveSpeed: 6
  RepeatPathing: 0
  IsBoss: 0
