%YAML 1.1
%TAG !u! tag:unity3d.com,2011:
--- !u!114 &11400000
MonoBehaviour:
  m_ObjectHideFlags: 0
  m_CorrespondingSourceObject: {fileID: 0}
  m_PrefabInstance: {fileID: 0}
  m_PrefabAsset: {fileID: 0}
  m_GameObject: {fileID: 0}
  m_Enabled: 1
  m_EditorHideFlags: 0
  m_Script: {fileID: 11500000, guid: 6e0f41d5a27daad49a0d93010e96dbfa, type: 3}
  m_Name: Wave_Boss 3
  m_EditorClassIdentifier: 
  EnemyPrefab: {fileID: 1460970287215382, guid: d28f1f8d05c746d41a9007493327248f,
    type: 3}
  PathPrefab: {fileID: 1106137139534900, guid: 0f0d2312d2cc6ae43b489095966df8b4, type: 3}
  TimeBetweenWaves: 600
  SpawnRandomFactor: 0
  NumberOfEnemies: 1
  MoveSpeed: 3
  RepeatPathing: 1
  IsBoss: 1
